…
julia> #タブをスペースに
julia> str_no_tab = replace(raw_str, '\t' => ' ')
"18.0   8.   307.0      130.0      3504.      12.0   70.  1. \"chevrolet chevelle malibu\"\n15.0   8.   350.0      165.0      3693.      11.5   70.  1. \"buick skylark 320\"\n18.0   8.   318.0      150.0      3436.      11.0   70.  1. \"plymouth satellite\"\n16.0   8.   304.0      150.0      3433.      12.0   70.  1. \"amc rebel sst\"\n17.0   8.   302.0      140.0      3449.      10.5   70.  1. \"ford torino\"\n15.0   8.   429.0      198.0      4341.      10.0   70.  1. " ⋯ 31232 bytes ⋯ " 2.2\"\n27.0   4.   151.0      90.00      2950.      17.3   82.  1. \"chevrolet camaro\"\n27.0   4.   140.0      86.00      2790.      15.6   82.  1. \"ford mustang gl\"\n44.0   4.   97.00      52.00      2130.      24.6   82.  2. \"vw pickup\"\n32.0   4.   135.0      84.00      2295.      11.6   82.  1. \"dodge rampage\"\n28.0   4.   120.0      79.00      2625.      18.6   82.  1. \"ford ranger\"\n31.0   4.   119.0      82.00      2720.      19.4   82.  1. \"chevy s-10\"\n"

julia> # 読み込み形式変換(データの読み書きに便利な型)
julia> io=IOBuffer(str_no_tab)
IOBuffer(data=UInt8[...], readable=true, writable=false, seekable=true, append=false, size=32149, maxsize=Inf, ptr=1, mark=-1)

julia> # 読み込み
julia> df=CSV.File(io,
       delim=' ',## 分割間隔
       ignorerepeated=true,# 行を揃えて区切られている場合に必要. (各々の間隔が違うため)
       header=[:mpg, :cylinders, :displacement, :horsepower, :weight, :acceleration, :year, :origin, :name],## 列名
       missingstring="NA" ## 欠損した値の表示方法) |> DataFrame
406×9 DataFrame
 Row │ mpg       cylinders  displacement  horsepower  weight   acceleration  year     origin   name                      
     │ Float64?  Float64    Float64       Float64?    Float64  Float64       Float64  Float64  String                    
─────┼───────────────────────────────────────────────────────────────────────────────────────────────────────────────────
   1 │     18.0        8.0         307.0       130.0   3504.0          12.0     70.0      1.0  chevrolet chevelle malibu
   2 │     15.0        8.0         350.0       165.0   3693.0          11.5     70.0      1.0  buick skylark 320
   3 │     18.0        8.0         318.0       150.0   3436.0          11.0     70.0      1.0  plymouth satellite
  ⋮  │    ⋮          ⋮           ⋮            ⋮          ⋮          ⋮           ⋮        ⋮                 ⋮
 404 │     32.0        4.0         135.0        84.0   2295.0          11.6     82.0      1.0  dodge rampage
 405 │     28.0        4.0         120.0        79.0   2625.0          18.6     82.0      1.0  ford ranger
 406 │     31.0        4.0         119.0        82.0   2720.0          19.4     82.0      1.0  chevy s-10
                                                                                                         400 rows omitted
```
…
#### 欠損値のカウント
```julia
julia> sum(count(ismissing, col) for col in eachcol(df))
14

julia> count(ismissing, Matrix(df))
14
```

#### 欠損値の0置き換え
```julia
julia> dropmissing(df)
392×10 DataFrame
 Row │ mpg      cylinders  displacement  horsepower  weight   acceleration  year     origin   name                       brand     
     │ Float64  Float64    Float64       Float64     Float64  Float64       Float64  Float64  String                     SubStrin… 
─────┼─────────────────────────────────────────────────────────────────────────────────────────────────────────────────────────────
   1 │    18.0        8.0         307.0       130.0   3504.0          12.0     70.0      1.0  chevrolet chevelle malibu  chevrolet
   2 │    15.0        8.0         350.0       165.0   3693.0          11.5     70.0      1.0  buick skylark 320          buick
   3 │    18.0        8.0         318.0       150.0   3436.0          11.0     70.0      1.0  plymouth satellite         plymouth
  ⋮  │    ⋮         ⋮           ⋮            ⋮          ⋮          ⋮           ⋮        ⋮                 ⋮                  ⋮
 390 │    32.0        4.0         135.0        84.0   2295.0          11.6     82.0      1.0  dodge rampage              dodge
 391 │    28.0        4.0         120.0        79.0   2625.0          18.6     82.0      1.0  ford ranger                ford
 392 │    31.0        4.0         119.0        82.0   2720.0          19.4     82.0      1.0  chevy s-10                 chevy
                                                                                                                   386 rows omitted
```


#### CSV形式データの読み込み
```julia
julia> df=CSV.read("/Users/yoko-h/Desktop/Julia_practice/output.csv",DataFrame)
11×8 DataFrame
 Row │ x1     x2     x3     x4     y1       y2       y3       y4      
     │ Int64  Int64  Int64  Int64  Float64  Float64  Float64  Float64 
─────┼────────────────────────────────────────────────────────────────
   1 │    10     10     10      8     8.04     9.14     7.46     6.58
   2 │     8      8      8      8     6.95     8.14     6.77     5.76
   3 │    13     13     13      8     7.58     8.74    12.74     7.71
  ⋮  │   ⋮      ⋮      ⋮      ⋮       ⋮        ⋮        ⋮        ⋮
   9 │    12     12     12      8    10.84     9.13     8.15     5.56
  10 │     7      7      7      8     4.82     7.26     6.42     7.91
  11 │     5      5      5      8     5.68     4.74     5.73     6.89
                                                        5 rows omitted
…
#### DataFrame内の行数, 列数を確認
```julia
julia> nrow(df), ncol(df)

(11, 8)

julia> size(df)

(11, 8)
```

#### 特定の文字列を含むものを出力
```julia
julia> select(df,r"x")
11×4 DataFrame
 Row │ x1     x2     x3     x4    
     │ Int64  Int64  Int64  Int64 
─────┼────────────────────────────
   1 │    10     10     10      8
   2 │     8      8      8      8
   3 │    13     13     13      8
  ⋮  │   ⋮      ⋮      ⋮      ⋮
   9 │    12     12     12      8
  10 │     7      7      7      8
  11 │     5      5      5      8
                    5 rows omitted
```
…
julia> df[1:10, ["name", "brand"]]
10×2 DataFrame
 Row │ name                       brand     
     │ String                     SubStrin… 
─────┼──────────────────────────────────────
   1 │ chevrolet chevelle malibu  chevrolet
   2 │ buick skylark 320          buick
   3 │ plymouth satellite         plymouth
  ⋮  │             ⋮                  ⋮
   8 │ plymouth fury iii          plymouth
   9 │ pontiac catalina           pontiac
  10 │ amc ambassador dpl         amc
                              4 rows omitted
```
…
## 大きなデータを保存し, 使用するためのArrow
### データの保存
```julia
julia> Arrow.write("auto-cleaned.arrow",df)
"auto-cleaned.arrow"
```

### DataFrame形式への変換
```julia
julia> df2=Arrow.Table("/Users/yoko-h/Desktop/Julia_practice/auto-cleaned.arrow") |> DataFrame
406×10 DataFrame
 Row │ mpg       cylinders  displacement  horsepower  weight   acceleration  year     origin   name                       brand     
     │ Float64?  Float64    Float64       Float64?    Float64  Float64       Float64  Float64  String                     String    
─────┼──────────────────────────────────────────────────────────────────────────────────────────────────────────────────────────────
   1 │     18.0        8.0         307.0       130.0   3504.0          12.0     70.0      1.0  chevrolet chevelle malibu  chevrolet
   2 │     15.0        8.0         350.0       165.0   3693.0          11.5     70.0      1.0  buick skylark 320          buick
   3 │     18.0        8.0         318.0       150.0   3436.0          11.0     70.0      1.0  plymouth satellite         plymouth
  ⋮  │    ⋮          ⋮           ⋮            ⋮          ⋮          ⋮           ⋮        ⋮                 ⋮                  ⋮
 404 │     32.0        4.0         135.0        84.0   2295.0          11.6     82.0      1.0  dodge rampage              dodge
 405 │     28.0        4.0         120.0        79.0   2625.0          18.6     82.0      1.0  ford ranger                ford
 406 │     31.0        4.0         119.0        82.0   2720.0          19.4     82.0      1.0  chevy s-10                 chevy
                                                                                                                    400 rows omitted
```
…
#### グループ化したものの表示
```julia
julia> grouped_brands[("ford", )] ## 文字列からタプルに変換して取り出す.
53×10 SubDataFrame
 Row │ mpg        cylinders  displacement  horsepower  weight   acceleration  year     origin   name                   brand     
     │ Float64?   Float64    Float64       Float64?    Float64  Float64       Float64  Float64  String                 SubStrin… 
─────┼───────────────────────────────────────────────────────────────────────────────────────────────────────────────────────────
   1 │      17.0        8.0         302.0       140.0   3449.0          10.5     70.0      1.0  ford torino            ford
   2 │      15.0        8.0         429.0       198.0   4341.0          10.0     70.0      1.0  ford galaxie 500       ford
   3 │ missing          8.0         351.0       153.0   4034.0          11.0     70.0      1.0  ford torino (sw)       ford
  ⋮  │     ⋮          ⋮           ⋮            ⋮          ⋮          ⋮           ⋮        ⋮               ⋮                ⋮
  51 │      22.0        6.0         232.0       112.0   2835.0          14.7     82.0      1.0  ford granada l         ford
  52 │      27.0        4.0         140.0        86.0   2790.0          15.6     82.0      1.0  ford mustang gl        ford
  53 │      28.0        4.0         120.0        79.0   2625.0          18.6     82.0      1.0  ford ranger            ford
                                                                                                                  47 rows omitted
```

## 統計パッケージStatisticsの利用
### グループごとの演算
```julia
julia> brand_mpg=combine(grouped_brands #=結合したいものの指表=#, :mpg => mean #=適用する内容.=#) ## meanを変えれば様々な関数を適用できる.
37×2 DataFrame
 Row │ brand          mpg_mean 
     │ SubStrin…      Float64  
─────┼─────────────────────────
   1 │ chevrolet       20.4721
   2 │ buick           19.1824
   3 │ plymouth        21.7032
  ⋮  │       ⋮           ⋮
  35 │ vokswagen       29.8
  36 │ triumph         35.0
  37 │ nissan          36.0
                31 rows omitted
```

#### データのソート
```julia
julia> sort!(brand_mpg, :mpg_mean, rev=true)
37×2 DataFrame
 Row │ brand      mpg_mean 
     │ SubStrin…  Float64  
─────┼─────────────────────
   1 │ vw          39.0167
   2 │ nissan      36.0
   3 │ triumph     35.0
  ⋮  │     ⋮         ⋮
  35 │ chrysler    17.2667
  36 │ chevroelt   16.0
  37 │ hi           9.0
            31 rows omitted
```
…
